…
exp_tidy_df
```

    ## # A tibble: 160 × 4
    ##   group subj    week outcome
    ##   <chr> <chr>  <dbl>   <dbl>
    ## 1 con   con_01     1    0.2 
    ## 2 con   con_01     2   -1.31
    ## 3 con   con_01     3    0.66
    ## 4 con   con_01     4    1.96
    ## 5 con   con_01     5    0.23
    ## # … with 155 more rows
    ## # ℹ Use `print(n = ...)` to see more rows
…
    ## Rows: 52179 Columns: 12
    ## ── Column specification ────────────────────────────────────────────────────────
    ## Delimiter: ","
    ## chr (9): uid, victim_last, victim_first, victim_race, victim_age, victim_sex...
    ## dbl (3): reported_date, lat, lon
    ## 
    ## ℹ Use `spec()` to retrieve the full column specification for this data.
    ## ℹ Specify the column types or set `show_col_types = FALSE` to quiet this message.

``` r
homocide_df
```

    ## # A tibble: 52,179 × 12
    ##   uid    repor…¹ victi…² victi…³ victi…⁴ victi…⁵ victi…⁶ city  state   lat   lon
    ##   <chr>    <dbl> <chr>   <chr>   <chr>   <chr>   <chr>   <chr> <chr> <dbl> <dbl>
    ## 1 Alb-0…  2.01e7 GARCIA  JUAN    Hispan… 78      Male    Albu… NM     35.1 -107.
    ## 2 Alb-0…  2.01e7 MONTOYA CAMERON Hispan… 17      Male    Albu… NM     35.1 -107.
    ## 3 Alb-0…  2.01e7 SATTER… VIVIANA White   15      Female  Albu… NM     35.1 -107.
    ## 4 Alb-0…  2.01e7 MENDIO… CARLOS  Hispan… 32      Male    Albu… NM     35.1 -107.
    ## 5 Alb-0…  2.01e7 MULA    VIVIAN  White   72      Female  Albu… NM     35.1 -107.
    ## # … with 52,174 more rows, 1 more variable: disposition <chr>, and abbreviated
    ## #   variable names ¹​reported_date, ²​victim_last, ³​victim_first, ⁴​victim_race,
    ## #   ⁵​victim_age, ⁶​victim_sex
    ## # ℹ Use `print(n = ...)` to see more rows, and `colnames()` to see all variable names
…
## Creating “city_state” variable

``` r
homocide_df_fin =
  homocide_df %>%
  unite(city_state,c(city, state), sep = ", ", remove=FALSE)

homocide_df_fin %>%
    select(city_state)
```

    ## # A tibble: 52,179 × 1
    ##   city_state     
    ##   <chr>          
    ## 1 Albuquerque, NM
    ## 2 Albuquerque, NM
    ## 3 Albuquerque, NM
    ## 4 Albuquerque, NM
    ## 5 Albuquerque, NM
    ## # … with 52,174 more rows
    ## # ℹ Use `print(n = ...)` to see more rows
…
